%YAML 1.1
%TAG !u! tag:unity3d.com,2011:
--- !u!1045 &1
EditorBuildSettings:
  m_ObjectHideFlags: 0
  serializedVersion: 2
  m_Scenes:
  - enabled: 1
    path: Assets/Scenes/Main.unity
    guid: 56edf70dca5e18f4e8a01b2f421edd4f
  - enabled: 1
    path: Assets/Scenes/Cutscene.unity
    guid: 9fc0d4010bbf28b4594072e72b8655ab
  - enabled: 1
    path: Assets/Scenes/Endgame.unity
    guid: 093e9b62615583047b3dd7a35428672c
  - enabled: 1
    path: Assets/Scenes/Victory.unity
    guid: 0f91177659f28e745b60f44d620c39f6
  m_configObjects: {}
